(*
Copyright (c) 1994 - 2000 Marc Necker.

This file is part of Analay (v2.0).
http://www.analay.de

Analay is free software: you can redistribute it and/or modify
it under the terms of the GNU General Public License version 2
as published by the Free Software Foundation.

Analay is distributed in the hope that it will be useful,
but WITHOUT ANY WARRANTY; without even the implied warranty of
MERCHANTABILITY or FITNESS FOR A PARTICULAR PURPOSE.  See the
GNU General Public License for more details.

You should have received a copy of the GNU General Public License
along with Analay.  If not, see <https://www.gnu.org/licenses/>.
*)


MODULE Images;

IMPORT I  : Intuition,
       g  : Graphics,
       e  : Exec,
       s  : SYSTEM,
       NoGuruRq;

TYPE Image * = UNTRACED POINTER TO ARRAY MAX(INTEGER) OF INTEGER; (* was: UNTRACED POINTER TO ARRAY 76 OF INTEGER *)

PROCEDURE AllocPointerImage*():Image;

VAR data : Image;

BEGIN
  data:=e.AllocMem(76*s.SIZE(INTEGER),LONGSET{e.memClear,e.chip});

  data[0]:=000000U;
  data[1]:=000001U;
  data[2]:=000000U;
  data[3]:=000003U;
  data[4]:=000000U;
  data[5]:=000003U;
  data[6]:=000800U;
  data[7]:=000003U;
  data[8]:=000C00U;
  data[9]:=000003U;
  data[10]:=000700U;
  data[11]:=000003U;
  data[12]:=0007C0U;
  data[13]:=000003U;
  data[14]:=0003F0U;
  data[15]:=000003U;
  data[16]:=0003FCU;
  data[17]:=000003U;
  data[18]:=0001E0U;
  data[19]:=000003U;
  data[20]:=0001F0U;
  data[21]:=000003U;
  data[22]:=0000D8U;
  data[23]:=000003U;
  data[24]:=0000CCU;
  data[25]:=000003U;
  data[26]:=000004U;
  data[27]:=000003U;
  data[28]:=000000U;
  data[29]:=000003U;
  data[30]:=000000U;
  data[31]:=000003U;
  data[32]:=000000U;
  data[33]:=000003U;
  data[34]:=000000U;
  data[35]:=000003U;
  data[36]:=007FFFU;
  data[37]:=00FFFFU;

  data[38]:=00FFFFU;
  data[39]:=00FFFEU;
  data[40]:=00C000U;
  data[41]:=000000U;
  data[42]:=00C000U;
  data[43]:=000000U;
  data[44]:=00CC00U;
  data[45]:=000000U;
  data[46]:=00C700U;
  data[47]:=000000U;
  data[48]:=00C3C0U;
  data[49]:=000000U;
  data[50]:=00C3F0U;
  data[51]:=000000U;
  data[52]:=00C1FCU;
  data[53]:=000000U;
  data[54]:=00C1FCU;
  data[55]:=000000U;
  data[56]:=00C0F0U;
  data[57]:=000000U;
  data[58]:=00C0D8U;
  data[59]:=000000U;
  data[60]:=00C04CU;
  data[61]:=000000U;
  data[62]:=00C046U;
  data[63]:=000000U;
  data[64]:=00C000U;
  data[65]:=000000U;
  data[66]:=00C000U;
  data[67]:=000000U;
  data[68]:=00C000U;
  data[69]:=000000U;
  data[70]:=00C000U;
  data[71]:=000000U;
  data[72]:=00C000U;
  data[73]:=000000U;
  data[74]:=008000U;
  data[75]:=000000U;

  RETURN data;
END AllocPointerImage;

PROCEDURE AllocCursorImage*():Image;

VAR data : Image;

BEGIN
  data:=e.AllocMem(76*s.SIZE(INTEGER),LONGSET{e.memClear,e.chip});

  data[0]:=000000U;
  data[1]:=000001U;
  data[2]:=000000U;
  data[3]:=000003U;
  data[4]:=000000U;
  data[5]:=000003U;
  data[6]:=000000U;
  data[7]:=000003U;
  data[8]:=000000U;
  data[9]:=000003U;
  data[10]:=000000U;
  data[11]:=000003U;
  data[12]:=000000U;
  data[13]:=000003U;
  data[14]:=000000U;
  data[15]:=000003U;
  data[16]:=000000U;
  data[17]:=000003U;
  data[18]:=000000U;
  data[19]:=000003U;
  data[20]:=000000U;
  data[21]:=000003U;
  data[22]:=000000U;
  data[23]:=000003U;
  data[24]:=000000U;
  data[25]:=000003U;
  data[26]:=000000U;
  data[27]:=000003U;
  data[28]:=000000U;
  data[29]:=000003U;
  data[30]:=000000U;
  data[31]:=000003U;
  data[32]:=000000U;
  data[33]:=000003U;
  data[34]:=000000U;
  data[35]:=000003U;
  data[36]:=007FFFU;
  data[37]:=00FFFFU;

  data[38]:=00FFFFU;
  data[39]:=00FFFEU;
  data[40]:=00C000U;
  data[41]:=000000U;
  data[42]:=00C000U;
  data[43]:=000000U;
  data[44]:=00C07EU;
  data[45]:=007E00U;
  data[46]:=00C001U;
  data[47]:=008000U;
  data[48]:=00C001U;
  data[49]:=008000U;
  data[50]:=00C001U;
  data[51]:=008000U;
  data[52]:=00C001U;
  data[53]:=008000U;
  data[54]:=00C001U;
  data[55]:=008000U;
  data[56]:=00C001U;
  data[57]:=008000U;
  data[58]:=00C001U;
  data[59]:=008000U;
  data[60]:=00C001U;
  data[61]:=008000U;
  data[62]:=00C001U;
  data[63]:=008000U;
  data[64]:=00C001U;
  data[65]:=008000U;
  data[66]:=00C001U;
  data[67]:=008000U;
  data[68]:=00C07EU;
  data[69]:=007E00U;
  data[70]:=00C000U;
  data[71]:=000000U;
  data[72]:=00C000U;
  data[73]:=000000U;
  data[74]:=008000U;
  data[75]:=000000U;

  RETURN data;
END AllocCursorImage;

PROCEDURE AllocGlassImage*():Image;

VAR data : Image;

BEGIN
  data:=e.AllocMem(76*s.SIZE(INTEGER),LONGSET{e.memClear,e.chip});

  data[0]:=000000U;
  data[1]:=000001U;
  data[2]:=000000U;
  data[3]:=000003U;
  data[4]:=000000U;
  data[5]:=000003U;
  data[6]:=000000U;
  data[7]:=000003U;
  data[8]:=000000U;
  data[9]:=000003U;
  data[10]:=000000U;
  data[11]:=000003U;
  data[12]:=000000U;
  data[13]:=000003U;
  data[14]:=000000U;
  data[15]:=000003U;
  data[16]:=000000U;
  data[17]:=000003U;
  data[18]:=000000U;
  data[19]:=000003U;
  data[20]:=000000U;
  data[21]:=000003U;
  data[22]:=000000U;
  data[23]:=000003U;
  data[24]:=000000U;
  data[25]:=000003U;
  data[26]:=000000U;
  data[27]:=000003U;
  data[28]:=000000U;
  data[29]:=000003U;
  data[30]:=000000U;
  data[31]:=000003U;
  data[32]:=000000U;
  data[33]:=000003U;
  data[34]:=000000U;
  data[35]:=000003U;
  data[36]:=007FFFU;
  data[37]:=00FFFFU;

  data[38]:=00FFFFU;
  data[39]:=00FFFEU;
  data[40]:=00C000U;
  data[41]:=000000U;
  data[42]:=00C000U;
  data[43]:=000000U;
  data[44]:=00C07FU;
  data[45]:=000000U;
  data[46]:=00C380U;
  data[47]:=00E000U;
  data[48]:=00C400U;
  data[49]:=001000U;
  data[50]:=00C880U;
  data[51]:=000800U;
  data[52]:=00C900U;
  data[53]:=000800U;
  data[54]:=00C900U;
  data[55]:=000800U;
  data[56]:=00C400U;
  data[57]:=001800U;
  data[58]:=00C380U;
  data[59]:=00F800U;
  data[60]:=00C07FU;
  data[61]:=00FC00U;
  data[62]:=00C000U;
  data[63]:=003F00U;
  data[64]:=00C000U;
  data[65]:=000FC0U;
  data[66]:=00C000U;
  data[67]:=0003F0U;
  data[68]:=00C000U;
  data[69]:=0000F0U;
  data[70]:=00C000U;
  data[71]:=000000U;
  data[72]:=00C000U;
  data[73]:=000000U;
  data[74]:=008000U;
  data[75]:=000000U;

  RETURN data;
END AllocGlassImage;

PROCEDURE AllocDepthImage*():Image;

VAR data : Image;

BEGIN
  data:=e.AllocMem(76*s.SIZE(INTEGER),LONGSET{e.memClear,e.chip});

  data[0]:=000000U;
  data[1]:=000001U;
  data[2]:=000000U;
  data[3]:=000003U;
  data[4]:=000000U;
  data[5]:=000003U;
  data[6]:=000000U;
  data[7]:=000003U;
  data[8]:=000000U;
  data[9]:=000003U;
  data[10]:=000000U;
  data[11]:=000003U;
  data[12]:=000000U;
  data[13]:=000003U;
  data[14]:=000000U;
  data[15]:=000003U;
  data[16]:=000000U;
  data[17]:=000003U;
  data[18]:=000000U;
  data[19]:=000003U;
  data[20]:=000000U;
  data[21]:=000003U;
  data[22]:=000000U;
  data[23]:=000003U;
  data[24]:=000000U;
  data[25]:=000003U;
  data[26]:=000000U;
  data[27]:=000003U;
  data[28]:=000000U;
  data[29]:=000003U;
  data[30]:=000000U;
  data[31]:=000003U;
  data[32]:=000000U;
  data[33]:=000003U;
  data[34]:=000000U;
  data[35]:=000003U;
  data[36]:=007FFFU;
  data[37]:=00FFFFU;

  data[38]:=00FFFFU;
  data[39]:=00FFFEU;
  data[40]:=00C000U;
  data[41]:=000000U;
  data[42]:=00C000U;
  data[43]:=000000U;
  data[44]:=00CFFFU;
  data[45]:=00F000U;
  data[46]:=00C800U;
  data[47]:=001000U;
  data[48]:=00CB75U;
  data[49]:=00D000U;
  data[50]:=00C800U;
  data[51]:=001000U;
  data[52]:=00CBBFU;
  data[53]:=00FFF0U;
  data[54]:=00C810U;
  data[55]:=000010U;
  data[56]:=00C9F5U;
  data[57]:=00BF50U;
  data[58]:=00C810U;
  data[59]:=000010U;
  data[60]:=00CFF7U;
  data[61]:=00B750U;
  data[62]:=00C010U;
  data[63]:=000010U;
  data[64]:=00C017U;
  data[65]:=007AD0U;
  data[66]:=00C010U;
  data[67]:=000010U;
  data[68]:=00C01FU;
  data[69]:=00FFF0U;
  data[70]:=00C000U;
  data[71]:=000000U;
  data[72]:=00C000U;
  data[73]:=000000U;
  data[74]:=008000U;
  data[75]:=000000U;

  RETURN data;
END AllocDepthImage;

PROCEDURE AllocTextImage*():Image;

VAR data : Image;

BEGIN
  data:=e.AllocMem(76*s.SIZE(INTEGER),LONGSET{e.memClear,e.chip});

  data[0]:=000000U;
  data[1]:=000001U;
  data[2]:=000000U;
  data[3]:=000003U;
  data[4]:=000000U;
  data[5]:=000003U;
  data[6]:=000000U;
  data[7]:=000003U;
  data[8]:=000000U;
  data[9]:=000003U;
  data[10]:=000000U;
  data[11]:=000003U;
  data[12]:=000000U;
  data[13]:=000003U;
  data[14]:=000000U;
  data[15]:=000003U;
  data[16]:=000000U;
  data[17]:=000003U;
  data[18]:=000000U;
  data[19]:=000003U;
  data[20]:=000000U;
  data[21]:=000003U;
  data[22]:=000000U;
  data[23]:=000003U;
  data[24]:=000000U;
  data[25]:=000003U;
  data[26]:=000000U;
  data[27]:=000003U;
  data[28]:=000000U;
  data[29]:=000003U;
  data[30]:=000000U;
  data[31]:=000003U;
  data[32]:=000000U;
  data[33]:=000003U;
  data[34]:=000000U;
  data[35]:=000003U;
  data[36]:=007FFFU;
  data[37]:=00FFFFU;

  data[38]:=00FFFFU;
  data[39]:=00FFFEU;
  data[40]:=00C000U;
  data[41]:=000000U;
  data[42]:=00C000U;
  data[43]:=000000U;
  data[44]:=00CFFFU;
  data[45]:=00FFF0U;
  data[46]:=00C800U;
  data[47]:=000010U;
  data[48]:=00C996U;
  data[49]:=00FA90U;
  data[50]:=00C800U;
  data[51]:=000010U;
  data[52]:=00C9ECU;
  data[53]:=004C90U;
  data[54]:=00C800U;
  data[55]:=000010U;
  data[56]:=00C9F3U;
  data[57]:=00FA10U;
  data[58]:=00C800U;
  data[59]:=000010U;
  data[60]:=00C9F5U;
  data[61]:=00EE90U;
  data[62]:=00C800U;
  data[63]:=000010U;
  data[64]:=00C9E6U;
  data[65]:=00F310U;
  data[66]:=00C800U;
  data[67]:=000010U;
  data[68]:=00CFFFU;
  data[69]:=00FFF0U;
  data[70]:=00C000U;
  data[71]:=000000U;
  data[72]:=00C000U;
  data[73]:=000000U;
  data[74]:=008000U;
  data[75]:=000000U;

  RETURN data;
END AllocTextImage;

PROCEDURE AllocDeleteImage*():Image;

VAR data : Image;

BEGIN
  data:=e.AllocMem(76*s.SIZE(INTEGER),LONGSET{e.memClear,e.chip});

  data[0]:=000000U;
  data[1]:=000001U;
  data[2]:=000000U;
  data[3]:=000003U;
  data[4]:=000000U;
  data[5]:=000003U;
  data[6]:=000C00U;
  data[7]:=000033U;
  data[8]:=000700U;
  data[9]:=0000E3U;
  data[10]:=0001C0U;
  data[11]:=000383U;
  data[12]:=000070U;
  data[13]:=000E03U;
  data[14]:=00001CU;
  data[15]:=003803U;
  data[16]:=000007U;
  data[17]:=00E003U;
  data[18]:=000001U;
  data[19]:=008003U;
  data[20]:=000007U;
  data[21]:=00E003U;
  data[22]:=00001CU;
  data[23]:=003803U;
  data[24]:=000070U;
  data[25]:=000E03U;
  data[26]:=0001C0U;
  data[27]:=000383U;
  data[28]:=000700U;
  data[29]:=0000E3U;
  data[30]:=000C00U;
  data[31]:=000033U;
  data[32]:=000000U;
  data[33]:=000003U;
  data[34]:=000000U;
  data[35]:=000003U;
  data[36]:=007FFFU;
  data[37]:=00FFFFU;

  data[38]:=00FFFFU;
  data[39]:=00FFFEU;
  data[40]:=00C000U;
  data[41]:=000000U;
  data[42]:=00C000U;
  data[43]:=000000U;
  data[44]:=00CFFFU;
  data[45]:=00FFF0U;
  data[46]:=00CF00U;
  data[47]:=0000F0U;
  data[48]:=00C9C0U;
  data[49]:=000390U;
  data[50]:=00C870U;
  data[51]:=000E10U;
  data[52]:=00C81CU;
  data[53]:=003810U;
  data[54]:=00C807U;
  data[55]:=00E010U;
  data[56]:=00C801U;
  data[57]:=008010U;
  data[58]:=00C807U;
  data[59]:=00E010U;
  data[60]:=00C81CU;
  data[61]:=003810U;
  data[62]:=00C870U;
  data[63]:=000E10U;
  data[64]:=00C9C0U;
  data[65]:=000390U;
  data[66]:=00CF00U;
  data[67]:=0000F0U;
  data[68]:=00CFFFU;
  data[69]:=00FFF0U;
  data[70]:=00C000U;
  data[71]:=000000U;
  data[72]:=00C000U;
  data[73]:=000000U;
  data[74]:=008000U;
  data[75]:=000000U;

  RETURN data;
END AllocDeleteImage;

PROCEDURE AllocTextLineImage*():Image;

VAR data : Image;

BEGIN
  data:=e.AllocMem(76*s.SIZE(INTEGER),LONGSET{e.memClear,e.chip});

  data[0]:=000000U;
  data[1]:=000001U;
  data[2]:=000000U;
  data[3]:=000003U;
  data[4]:=000000U;
  data[5]:=000003U;
  data[6]:=000000U;
  data[7]:=000003U;
  data[8]:=000000U;
  data[9]:=000003U;
  data[10]:=000000U;
  data[11]:=000003U;
  data[12]:=000000U;
  data[13]:=000003U;
  data[14]:=000000U;
  data[15]:=000003U;
  data[16]:=000000U;
  data[17]:=000003U;
  data[18]:=000000U;
  data[19]:=000003U;
  data[20]:=000000U;
  data[21]:=000003U;
  data[22]:=000000U;
  data[23]:=000003U;
  data[24]:=000000U;
  data[25]:=000003U;
  data[26]:=000000U;
  data[27]:=000003U;
  data[28]:=000000U;
  data[29]:=000003U;
  data[30]:=000000U;
  data[31]:=000003U;
  data[32]:=000000U;
  data[33]:=000003U;
  data[34]:=000000U;
  data[35]:=000003U;
  data[36]:=007FFFU;
  data[37]:=00FFFFU;

  data[38]:=00FFFFU;
  data[39]:=00FFFEU;
  data[40]:=00C000U;
  data[41]:=000000U;
  data[42]:=00C000U;
  data[43]:=000000U;
  data[44]:=00C000U;
  data[45]:=000000U;
  data[46]:=00C000U;
  data[47]:=000000U;
  data[48]:=00C000U;
  data[49]:=000000U;
  data[50]:=00C000U;
  data[51]:=000000U;
  data[52]:=00C000U;
  data[53]:=000000U;
  data[54]:=00CF39U;
  data[55]:=00BE70U;
  data[56]:=00CF39U;
  data[57]:=00BE70U;
  data[58]:=00C000U;
  data[59]:=000000U;
  data[60]:=00C000U;
  data[61]:=000000U;
  data[62]:=00C000U;
  data[63]:=000000U;
  data[64]:=00C000U;
  data[65]:=000000U;
  data[66]:=00C000U;
  data[67]:=000000U;
  data[68]:=00C000U;
  data[69]:=000000U;
  data[70]:=00C000U;
  data[71]:=000000U;
  data[72]:=00C000U;
  data[73]:=000000U;
  data[74]:=008000U;
  data[75]:=000000U;

  RETURN data;
END AllocTextLineImage;

PROCEDURE AllocLineImage*():Image;

VAR data : Image;

BEGIN
  data:=e.AllocMem(76*s.SIZE(INTEGER),LONGSET{e.memClear,e.chip});

  data[0]:=000000U;
  data[1]:=000001U;
  data[2]:=000000U;
  data[3]:=000003U;
  data[4]:=000000U;
  data[5]:=000003U;
  data[6]:=000000U;
  data[7]:=000003U;
  data[8]:=000000U;
  data[9]:=000003U;
  data[10]:=000000U;
  data[11]:=000003U;
  data[12]:=000000U;
  data[13]:=000003U;
  data[14]:=000000U;
  data[15]:=000003U;
  data[16]:=000000U;
  data[17]:=000003U;
  data[18]:=000000U;
  data[19]:=000003U;
  data[20]:=000000U;
  data[21]:=000003U;
  data[22]:=000000U;
  data[23]:=000003U;
  data[24]:=000000U;
  data[25]:=000003U;
  data[26]:=000000U;
  data[27]:=000003U;
  data[28]:=000000U;
  data[29]:=000003U;
  data[30]:=000000U;
  data[31]:=000003U;
  data[32]:=000000U;
  data[33]:=000003U;
  data[34]:=000000U;
  data[35]:=000003U;
  data[36]:=007FFFU;
  data[37]:=00FFFFU;

  data[38]:=00FFFFU;
  data[39]:=00FFFEU;
  data[40]:=00C000U;
  data[41]:=000000U;
  data[42]:=00C000U;
  data[43]:=000000U;
  data[44]:=00C000U;
  data[45]:=000010U;
  data[46]:=00C000U;
  data[47]:=000060U;
  data[48]:=00C000U;
  data[49]:=000180U;
  data[50]:=00C000U;
  data[51]:=000600U;
  data[52]:=00C000U;
  data[53]:=001800U;
  data[54]:=00C000U;
  data[55]:=006000U;
  data[56]:=00C001U;
  data[57]:=008000U;
  data[58]:=00C006U;
  data[59]:=000000U;
  data[60]:=00C018U;
  data[61]:=000000U;
  data[62]:=00C060U;
  data[63]:=000000U;
  data[64]:=00C180U;
  data[65]:=000000U;
  data[66]:=00C600U;
  data[67]:=000000U;
  data[68]:=00C800U;
  data[69]:=000000U;
  data[70]:=00C000U;
  data[71]:=000000U;
  data[72]:=00C000U;
  data[73]:=000000U;
  data[74]:=008000U;
  data[75]:=000000U;

  RETURN data;
END AllocLineImage;

PROCEDURE AllocRectangleImage*():Image;

VAR data : Image;

BEGIN
  data:=e.AllocMem(76*s.SIZE(INTEGER),LONGSET{e.memClear,e.chip});

  data[0]:=000000U;
  data[1]:=000001U;
  data[2]:=000000U;
  data[3]:=000003U;
  data[4]:=000000U;
  data[5]:=000003U;
  data[6]:=000000U;
  data[7]:=000003U;
  data[8]:=000000U;
  data[9]:=000003U;
  data[10]:=000000U;
  data[11]:=000003U;
  data[12]:=000000U;
  data[13]:=000003U;
  data[14]:=000000U;
  data[15]:=000003U;
  data[16]:=000000U;
  data[17]:=000003U;
  data[18]:=000000U;
  data[19]:=000003U;
  data[20]:=000000U;
  data[21]:=000003U;
  data[22]:=000000U;
  data[23]:=000003U;
  data[24]:=000000U;
  data[25]:=000003U;
  data[26]:=000000U;
  data[27]:=000003U;
  data[28]:=000000U;
  data[29]:=000003U;
  data[30]:=000000U;
  data[31]:=000003U;
  data[32]:=000000U;
  data[33]:=000003U;
  data[34]:=000000U;
  data[35]:=000003U;
  data[36]:=007FFFU;
  data[37]:=00FFFFU;

  data[38]:=00FFFFU;
  data[39]:=00FFFEU;
  data[40]:=00C000U;
  data[41]:=000000U;
  data[42]:=00C000U;
  data[43]:=000000U;
  data[44]:=00CFFFU;
  data[45]:=00FFF0U;
  data[46]:=00CFFFU;
  data[47]:=00FFF0U;
  data[48]:=00CFFFU;
  data[49]:=00FFF0U;
  data[50]:=00CFFFU;
  data[51]:=00FFF0U;
  data[52]:=00CFFFU;
  data[53]:=00FFF0U;
  data[54]:=00CFFFU;
  data[55]:=00FFF0U;
  data[56]:=00CFFFU;
  data[57]:=00FFF0U;
  data[58]:=00CFFFU;
  data[59]:=00FFF0U;
  data[60]:=00CFFFU;
  data[61]:=00FFF0U;
  data[62]:=00CFFFU;
  data[63]:=00FFF0U;
  data[64]:=00CFFFU;
  data[65]:=00FFF0U;
  data[66]:=00CFFFU;
  data[67]:=00FFF0U;
  data[68]:=00CFFFU;
  data[69]:=00FFF0U;
  data[70]:=00C000U;
  data[71]:=000000U;
  data[72]:=00C000U;
  data[73]:=000000U;
  data[74]:=008000U;
  data[75]:=000000U;

  RETURN data;
END AllocRectangleImage;

PROCEDURE AllocCircleImage*():Image;

VAR data : Image;

BEGIN
  data:=e.AllocMem(76*s.SIZE(INTEGER),LONGSET{e.memClear,e.chip});

  data[0]:=000000U;
  data[1]:=000001U;
  data[2]:=000000U;
  data[3]:=000003U;
  data[4]:=000000U;
  data[5]:=000003U;
  data[6]:=000000U;
  data[7]:=000003U;
  data[8]:=000000U;
  data[9]:=000003U;
  data[10]:=000000U;
  data[11]:=000003U;
  data[12]:=000000U;
  data[13]:=000003U;
  data[14]:=000000U;
  data[15]:=000003U;
  data[16]:=000000U;
  data[17]:=000003U;
  data[18]:=000000U;
  data[19]:=000003U;
  data[20]:=000000U;
  data[21]:=000003U;
  data[22]:=000000U;
  data[23]:=000003U;
  data[24]:=000000U;
  data[25]:=000003U;
  data[26]:=000000U;
  data[27]:=000003U;
  data[28]:=000000U;
  data[29]:=000003U;
  data[30]:=000000U;
  data[31]:=000003U;
  data[32]:=000000U;
  data[33]:=000003U;
  data[34]:=000000U;
  data[35]:=000003U;
  data[36]:=007FFFU;
  data[37]:=00FFFFU;

  data[38]:=00FFFFU;
  data[39]:=00FFFEU;
  data[40]:=00C000U;
  data[41]:=000000U;
  data[42]:=00C000U;
  data[43]:=000000U;
  data[44]:=00C01FU;
  data[45]:=00F000U;
  data[46]:=00C07FU;
  data[47]:=00FE00U;
  data[48]:=00C3FFU;
  data[49]:=00FF80U;
  data[50]:=00C7FFU;
  data[51]:=00FFC0U;
  data[52]:=00CFFFU;
  data[53]:=00FFE0U;
  data[54]:=00DFFFU;
  data[55]:=00FFF0U;
  data[56]:=00DFFFU;
  data[57]:=00FFF0U;
  data[58]:=00DFFFU;
  data[59]:=00FFF0U;
  data[60]:=00CFFFU;
  data[61]:=00FFE0U;
  data[62]:=00C7FFU;
  data[63]:=00FFC0U;
  data[64]:=00C3FFU;
  data[65]:=00FF80U;
  data[66]:=00C07FU;
  data[67]:=00FE00U;
  data[68]:=00C01FU;
  data[69]:=00F000U;
  data[70]:=00C000U;
  data[71]:=000000U;
  data[72]:=00C000U;
  data[73]:=000000U;
  data[74]:=008000U;
  data[75]:=000000U;

  RETURN data;
END AllocCircleImage;

PROCEDURE DestructImage*(VAR image:Image;width,height,depth:INTEGER);
(* width = width in pixels, must be multiple of 8. *)

BEGIN
  e.FreeMem(image,(width DIV 8)*height*(depth DIV 2)*s.SIZE(INTEGER));
END DestructImage;

PROCEDURE InvertImage*(VAR image:Image);

VAR i,a : INTEGER;
    set : SET;

BEGIN
  FOR i:=0 TO 75 DO
    set:=s.VAL(SET,image[i]);
    FOR a:=0 TO 15 DO
      IF a IN set THEN
        EXCL(set,a);
      ELSE
        INCL(set,a);
      END;
    END;
    image[i]:=s.VAL(INTEGER,set);
  END;
END InvertImage;

TYPE AnalayData = ARRAY 620 OF INTEGER;

CONST analay = AnalayData(
000000U,000000U,000000U,000000U,000000U,000000U,000000U,000000U,000000U,000000U,
000000U,008000U,0000C0U,00000FU,000008U,000002U,0003E0U,000003U,00E020U,00F000U,
000000U,00C000U,000040U,00003CU,00000CU,000000U,000700U,001003U,000001U,00C000U,
000000U,004000U,000020U,000030U,000004U,000000U,000600U,001801U,000003U,008000U,
000000U,006000U,000010U,000030U,000006U,000000U,000600U,000801U,008007U,000000U,
000000U,006000U,000008U,000030U,000006U,000000U,000600U,000C00U,008006U,000000U,
000000U,002000U,00000CU,000030U,000002U,000000U,000600U,004C00U,00C00EU,000000U,
000004U,003000U,000204U,000030U,000043U,000000U,000600U,004400U,00401CU,000000U,
000004U,001000U,000302U,000030U,000041U,000000U,000600U,00C600U,002018U,000000U,
00000CU,001800U,000301U,000030U,0000C1U,008000U,000600U,008200U,003038U,000000U,
00000CU,000800U,000300U,008030U,0000C0U,008000U,000601U,008300U,001030U,000000U,
00000CU,000C00U,000300U,00C030U,0000C0U,00C000U,000601U,000100U,000860U,000000U,
00001CU,000400U,000300U,004030U,0001C0U,004000U,000600U,000180U,000CE0U,000000U,
000018U,000600U,000300U,002030U,000180U,006000U,000603U,00F180U,0000C0U,000000U,
000038U,000200U,000300U,001030U,000380U,002000U,000602U,000080U,0001C0U,000000U,
000030U,000300U,000300U,000830U,000300U,003000U,000606U,0000C0U,000380U,000000U,
000030U,000300U,000300U,000C30U,000300U,003000U,000604U,000040U,000300U,000000U,
000060U,000100U,000300U,000430U,000600U,001000U,00060CU,000060U,000300U,000000U,
000000U,000180U,000300U,000230U,000000U,001800U,000604U,000000U,000300U,000000U,
000000U,000080U,000300U,000130U,000000U,000800U,00063EU,0003F8U,000300U,000000U,
0000FFU,00E0C0U,000300U,000030U,000FFEU,000C00U,000600U,000000U,000300U,000000U,
0001C0U,000040U,000300U,000030U,001C00U,000400U,000600U,000000U,000300U,000000U,
000180U,000060U,000300U,000030U,001800U,000600U,000600U,000100U,000300U,000000U,
000180U,000020U,000300U,000030U,001800U,000200U,000600U,000300U,000300U,000000U,
000380U,000030U,000300U,000030U,003800U,000300U,000600U,000200U,000300U,000000U,
000300U,000010U,000300U,000030U,003000U,000100U,000600U,000600U,000300U,000000U,
000300U,000018U,000100U,000030U,003000U,000180U,000200U,000600U,000300U,000000U,
000100U,000008U,000080U,000030U,001000U,000080U,000000U,000E00U,000100U,000000U,
000000U,000000U,000000U,000030U,000000U,000000U,000000U,000C00U,000000U,000000U,
003FE0U,0007FFU,003FF0U,000033U,00FE00U,007FF3U,00FFFFU,00FC01U,00FFF0U,000000U,
000000U,000000U,000000U,000010U,000000U,000000U,000000U,000000U,000000U,000000U,

000002U,000000U,00FF00U,000FFCU,000020U,00000FU,00FF80U,0007FFU,0080FFU,00C000U,
000007U,000000U,003F00U,0003F0U,000070U,000001U,00FC00U,0041FCU,00001FU,000000U,
000007U,000000U,001F80U,0001C0U,000070U,000000U,00F800U,00E0FCU,00001EU,000000U,
000007U,008000U,000FC0U,0000C0U,000078U,000000U,00F800U,00E07EU,00001CU,000000U,
00000FU,008000U,000FE0U,0000C0U,0000F8U,000000U,00F801U,00F07EU,000018U,000000U,
00000FU,008000U,000FF0U,0000C0U,0000F8U,000000U,00F801U,00F03FU,000038U,000000U,
00001FU,00C000U,000FF0U,0000C0U,0001FCU,000000U,00F801U,00301FU,000070U,000000U,
00001BU,00C000U,000DF8U,0000C0U,0001BCU,000000U,00F803U,00381FU,008060U,000000U,
00003BU,00E000U,000CFCU,0000C0U,0003BEU,000000U,00F802U,00380FU,00C0E0U,000000U,
000033U,00E000U,000C7EU,0000C0U,00033EU,000000U,00F806U,001C07U,00C0C0U,000000U,
000031U,00F000U,000C7FU,0000C0U,00031FU,000000U,00F804U,001C07U,00E180U,000000U,
000071U,00F000U,000C3FU,0000C0U,00071FU,000000U,00F80CU,000E03U,00F380U,000000U,
000060U,00F800U,000C1FU,0080C0U,00060FU,008000U,00F80FU,00FE01U,00F300U,000000U,
0000E0U,00F800U,000C0FU,00C0C0U,000E0FU,008000U,00F808U,000E01U,00FF00U,000000U,
0000C0U,007C00U,000C07U,00E0C0U,000C07U,00C000U,00F818U,000700U,00FE00U,000000U,
0000C0U,007C00U,000C07U,00F0C0U,000C07U,00C000U,00F810U,000700U,00FC00U,000000U,
000180U,003C00U,000C03U,00F0C0U,001803U,00C000U,00F830U,000380U,007C00U,000000U,
000180U,003E00U,000C01U,00F8C0U,001803U,00E000U,00F870U,000380U,007C00U,000000U,
0003FFU,00FE00U,000C00U,00FCC0U,003FFFU,00E000U,00F8F8U,000FE0U,007C00U,000000U,
0003FFU,00FF00U,000C00U,007EC0U,003FFFU,00F000U,00F800U,000000U,007C00U,000000U,
000700U,001F00U,000C00U,003FC0U,007001U,00F000U,00F800U,000000U,007C00U,000000U,
000600U,000F80U,000C00U,003FC0U,006000U,00F800U,00F800U,000400U,007C00U,000000U,
000600U,000F80U,000C00U,001FC0U,006000U,00F800U,00F800U,000C00U,007C00U,000000U,
000E00U,0007C0U,000C00U,000FC0U,00E000U,007C00U,00F800U,000800U,007C00U,000000U,
000C00U,0007C0U,000C00U,0007C0U,00C000U,007C00U,00F800U,001800U,007C00U,000000U,
001C00U,0007E0U,000C00U,0003C1U,00C000U,007E00U,00F800U,003800U,007C00U,000000U,
001C00U,0003E0U,001E00U,0003C1U,00C000U,003E00U,00FC00U,00F800U,007C00U,000000U,
003E00U,0007F0U,003F00U,0001C3U,00E000U,007F01U,00FFFFU,00F000U,00FE00U,000000U,
00FF80U,001FFCU,00FFC0U,0000CFU,00F801U,00FFCFU,00FFFFU,00F007U,00FFC0U,000000U,
000000U,000000U,000000U,000040U,000000U,000000U,000000U,000000U,000000U,000000U,
000000U,000000U,000000U,000000U,000000U,000000U,000000U,000000U,000000U,000000U);

PROCEDURE AllocAnalayImage*():Image;

VAR data : Image;

BEGIN
  data:=e.AllocMem(620*2,LONGSET{e.memClear,e.chip});
  e.CopyMem(analay,data^,620*2);

  RETURN data;
END AllocAnalayImage;

PROCEDURE AllocAnalayIntuiImage*(analaydata:Image):I.ImagePtr;

VAR analayimg : I.ImagePtr;

BEGIN
  NEW(analayimg);
  analayimg.leftEdge:=0;
  analayimg.topEdge:=0;
  analayimg.width:=160;
  analayimg.height:=31;
  analayimg.depth:=2;
  analayimg.imageData:=analaydata;
  analayimg.planePick:=SHORTSET{0,1};
  analayimg.planeOnOff:=SHORTSET{};
  analayimg.nextImage:=NIL;

  RETURN analayimg;
END AllocAnalayIntuiImage;

TYPE AnalysisData = ARRAY 1800 OF INTEGER;

CONST analysis = AnalysisData(
000000U,000000U,000000U,000000U,000000U,000000U,000000U,000000U,000000U,
000000U,000000U,000000U,000000U,000000U,000000U,000000U,000000U,000000U,
000000U,000000U,000000U,000000U,000000U,000000U,000000U,000000U,000000U,
000000U,000000U,000000U,000000U,000000U,000000U,000000U,000000U,000000U,
000000U,000000U,000000U,000000U,000000U,000000U,000000U,000000U,000000U,
000000U,000000U,000000U,000000U,000000U,000000U,000000U,000000U,000000U,
000000U,00007FU,00F000U,000000U,007800U,000000U,0000F0U,000000U,000000U,
000000U,0000FFU,00F800U,000000U,007800U,000000U,0000F0U,000000U,000000U,
000000U,0000F0U,007800U,000000U,007800U,000000U,000000U,000000U,000000U,
000000U,0000F0U,007800U,000000U,007800U,000000U,000000U,000000U,000000U,
000000U,0000F0U,0079FFU,0087FEU,0078F0U,000F1FU,00F8F1U,00FF00U,000000U,
000000U,0000FFU,00F9FFU,00CFFEU,0078F8U,001F3FU,00F8F3U,00FF00U,000000U,
000000U,0000FFU,00F9E3U,00CF1EU,00787CU,003E3CU,0000F3U,00C000U,000000U,
000000U,0000F0U,0079E3U,00CF1EU,00783EU,007C3FU,00E0F3U,00FC00U,000000U,
000000U,0000F0U,0079E3U,00CF1EU,00781FU,00F81FU,00F8F1U,00FF00U,000000U,
000000U,0000F0U,0079E3U,00CF1EU,00780FU,00F000U,0078F0U,000F00U,000000U,
000000U,0000F0U,0079E3U,00CFFEU,007E07U,00E03FU,00F8F3U,00FF00U,000000U,
000000U,0000F0U,0079E3U,00C7FEU,003E07U,00C03FU,00E0F3U,00FE00U,000000U,
000000U,000000U,000000U,000000U,00000FU,008000U,000000U,000000U,000000U,
000000U,000000U,000000U,000000U,00001FU,000000U,000000U,000000U,000000U,
000000U,0000FFU,00FFFFU,00FFFFU,00FF3EU,007FFFU,00FFFFU,00FF80U,000000U,
000000U,0000FFU,00FFFFU,00FFFFU,00FF3CU,007FFFU,00FFFFU,00FF80U,000000U,
000000U,000000U,000000U,000000U,000000U,000000U,000000U,000000U,000000U,
000000U,000000U,000000U,000000U,000000U,000000U,000000U,000000U,000000U,
000000U,000000U,000000U,000000U,000000U,000000U,000000U,000000U,000000U,
000000U,000000U,000000U,000000U,000000U,000000U,000000U,000000U,000000U,
000000U,000000U,000000U,000000U,000000U,000000U,000000U,000000U,000000U,
000000U,000000U,000000U,000000U,000000U,000000U,000000U,000000U,000000U,
000000U,000000U,000000U,000000U,000000U,000000U,000000U,000000U,000000U,
000000U,000000U,000000U,000000U,000000U,000000U,000000U,000000U,000000U,
000000U,000000U,000000U,000000U,000000U,000000U,000000U,000000U,000000U,
000000U,000000U,000000U,000000U,000000U,000000U,000000U,000000U,000000U,
000000U,007F9CU,000000U,000000U,000000U,000000U,000000U,000000U,000000U,
000000U,000000U,000000U,000000U,000000U,000000U,004000U,000000U,000000U,
000000U,000000U,000000U,000000U,000000U,000000U,00E000U,000000U,000000U,
000000U,000000U,000000U,000000U,000000U,000001U,00F000U,000000U,000000U,
000000U,007DCFU,009CFDU,008000U,000000U,000003U,00F800U,000000U,000000U,
000000U,000000U,000000U,000000U,000000U,000000U,00E000U,000000U,000000U,
000000U,007BBEU,000000U,000000U,000000U,000000U,00E000U,000000U,000000U,
000000U,000000U,000000U,000000U,000000U,000000U,00E000U,000000U,000000U,
000000U,007DCFU,00F33EU,00C000U,000000U,000000U,00E000U,000000U,000000U,
000000U,000000U,000000U,000000U,000000U,000000U,00E000U,000000U,000000U,
000000U,007F3CU,00FFB3U,00C000U,000000U,000000U,00E000U,000008U,000000U,
000000U,000000U,000000U,000000U,000000U,000000U,00E000U,000008U,000000U,
000000U,0073DBU,00F670U,000000U,000000U,001F00U,00E000U,000008U,000000U,
000000U,000000U,000000U,000000U,000000U,00E2E0U,00E000U,000010U,000000U,
000000U,007F73U,00F77DU,00C000U,000003U,004458U,00E000U,000010U,000000U,
000000U,000000U,000000U,000000U,00000CU,00888EU,00E000U,000020U,000000U,
000000U,0077DBU,009EE7U,00C000U,000011U,001111U,00E000U,0001A0U,000000U,
000000U,000000U,000000U,000000U,000022U,002222U,00E000U,0001E0U,000000U,
000000U,007F77U,00CF6FU,00C000U,0003FFU,00FFFFU,00FFFFU,00FFF8U,000000U,
000000U,000000U,000000U,000000U,000040U,000000U,00E888U,0089E0U,000000U,
000000U,007CFEU,007C7CU,00C000U,000080U,000000U,00F111U,001180U,000000U,
000000U,000000U,000000U,000000U,000080U,000000U,00EE22U,002600U,000000U,
000000U,0067FBU,00BF8FU,00C000U,000100U,000000U,00E344U,005800U,000000U,
000000U,000000U,000000U,000000U,000100U,000000U,00E0E8U,00E000U,000000U,
000000U,007EFEU,007CFCU,00C000U,000200U,000000U,00E01FU,000000U,000000U,
000000U,000000U,000000U,000000U,000200U,000000U,00E000U,000000U,000000U,
000000U,007FDFU,00F71FU,00C000U,000200U,000000U,00E000U,000000U,000000U,
000000U,000000U,000000U,000000U,000000U,000000U,00E000U,000000U,000000U,
000000U,007CFFU,0037BBU,00C000U,000000U,000000U,00E000U,000000U,000000U,
000000U,000000U,000000U,000000U,000000U,000000U,00E000U,000000U,000000U,
000000U,0077F7U,00C7ECU,00C000U,000000U,000000U,00E000U,000000U,000000U,
000000U,000000U,000000U,000000U,000000U,000000U,00E000U,000000U,000000U,
000000U,006FE7U,00C7E7U,00C000U,000000U,000000U,00E000U,000000U,000000U,
000000U,000000U,000000U,000000U,000000U,000000U,00E000U,000000U,000000U,
000000U,007F78U,00FEC0U,000000U,000000U,000000U,00E000U,000000U,000000U,
000000U,000000U,000000U,000000U,000000U,000000U,00E000U,000000U,000000U,
000000U,0071FEU,0071FDU,00C000U,000000U,000000U,000000U,000000U,000000U,
000000U,000000U,000000U,000000U,000000U,000000U,000000U,000000U,000000U,
000000U,0079E7U,00E79FU,00C000U,000000U,000000U,000000U,000000U,000000U,
000000U,000000U,000000U,000000U,000000U,000000U,000000U,000000U,000000U,
000000U,007F3EU,003E73U,00C000U,000000U,000000U,000000U,000000U,000000U,
000000U,000000U,000000U,000000U,000000U,000000U,000000U,000000U,000000U,
000000U,0073F9U,00FCF3U,00C000U,000000U,000000U,000000U,000000U,000000U,
000000U,000000U,000000U,00000FU,00FFFFU,00FFFFU,00FFFFU,00FFF8U,000000U,
000000U,007F9FU,00CF3FU,00C008U,000421U,000842U,001084U,002108U,000000U,
000000U,000000U,000000U,00000BU,00B5ADU,004B52U,00D6B5U,002D68U,000000U,
000000U,007CF9U,00FCF9U,00C008U,000421U,000842U,001084U,002108U,000000U,
000000U,000000U,000000U,00000FU,00FFFFU,00FFFFU,00FFFFU,00FFF8U,000000U,
000000U,0079E7U,00F3E7U,00C008U,000421U,000842U,001084U,002108U,000000U,
000000U,000000U,000000U,00000BU,0075A9U,006B52U,0096B5U,00A968U,000000U,
000000U,007F3FU,00BF9FU,00C008U,000421U,000842U,001084U,002108U,000000U,
000000U,000000U,000000U,00000FU,00FFFFU,00FFFFU,00FFFFU,00FFF8U,000000U,
000000U,0079FDU,00CFE7U,00C000U,000000U,000000U,000000U,000000U,000000U,
000000U,000000U,000000U,000000U,000000U,000000U,000000U,000000U,000000U,
000000U,007FCFU,009F3FU,00C000U,000000U,000000U,000000U,000000U,000000U,
000000U,000000U,000000U,000000U,000000U,000000U,000000U,000000U,000000U,
000000U,0079FEU,007E7EU,00C000U,000000U,000000U,000000U,000000U,000000U,
000000U,000000U,000000U,000000U,000000U,000000U,000000U,000000U,000000U,
000000U,007F9CU,00E7C0U,000000U,000000U,000000U,000000U,000000U,000000U,
000000U,000000U,000000U,000000U,000000U,000000U,000000U,000000U,000000U,
000000U,000000U,000000U,000000U,000000U,000000U,000000U,000000U,000000U,
000000U,000000U,000000U,000000U,000000U,000000U,000000U,000000U,000000U,
000000U,000000U,000000U,000000U,000000U,000000U,000000U,000000U,000000U,
000000U,000000U,000000U,000000U,000000U,000000U,000000U,000000U,000000U,
000000U,000000U,000000U,000000U,000000U,000000U,000000U,000000U,000000U,
000000U,000000U,000000U,000000U,000000U,000000U,000000U,000000U,000000U,
000000U,000000U,000000U,000000U,000000U,000000U,000000U,000000U,000000U,
000000U,000000U,000000U,000000U,000000U,000000U,000000U,000000U,000000U,

00FFFFU,00FFFFU,00FFFFU,00FFFFU,00FFFFU,00FFFFU,00FFFFU,00FFFFU,00FFFFU,
00FFFFU,00FFFFU,00FFFFU,00FFFFU,00FFFFU,00FFFFU,00FFFFU,00FFFFU,00FFFFU,
00FFFFU,00FFFFU,00FFFFU,00FFFFU,00FFFFU,00FFFFU,00FFFFU,00FFFFU,00FFFFU,
00FFFFU,00FFFFU,00FFFFU,00FFFFU,00FFFFU,00FFFFU,00FFFFU,00FFFFU,00FFFFU,
00FFFFU,00FFFFU,00FFFFU,00FFFFU,00FFFFU,00FFFFU,00FFFFU,00FFFFU,00FFFFU,
00FFFFU,00FFFFU,00FFFFU,00FFFFU,00FFFFU,00FFFFU,00FFFFU,00FFFFU,00FFFFU,
00FFFFU,00FF80U,000FFFU,00FFFFU,0087FFU,00FFFFU,00FF0FU,00FFFFU,00FFFFU,
00FFFFU,00FF00U,0007FFU,00FFFFU,0087FFU,00FFFFU,00FF0FU,00FFFFU,00FFFFU,
00FFFFU,00FF0FU,0087FFU,00FFFFU,0087FFU,00FFFFU,00FFFFU,00FFFFU,00FFFFU,
00FFFFU,00FF0FU,0087FFU,00FFFFU,0087FFU,00FFFFU,00FFFFU,00FFFFU,00FFFFU,
00FFFFU,00FF0FU,008600U,007801U,00870FU,00F0E0U,00070EU,0000FFU,00FFFFU,
00FFFFU,00FF00U,000600U,003001U,008707U,00E0C0U,00070CU,0000FFU,00FFFFU,
00FFFFU,00FF00U,00061CU,0030E1U,008783U,00C1C3U,00FF0CU,003FFFU,00FFFFU,
00FFFFU,00FF0FU,00861CU,0030E1U,0087C1U,0083C0U,001F0CU,0003FFU,00FFFFU,
00FFFFU,00FF0FU,00861CU,0030E1U,0087E0U,0007E0U,00070EU,0000FFU,00FFFFU,
00FFFFU,00FF0FU,00861CU,0030E1U,0087F0U,000FFFU,00870FU,00F0FFU,00FFFFU,
00FFFFU,00FF0FU,00861CU,003001U,0081F8U,001FC0U,00070CU,0000FFU,00FFFFU,
00FFFFU,00FF0FU,00861CU,003801U,00C1F8U,003FC0U,001F0CU,0001FFU,00FFFFU,
00FFFFU,00FFFFU,00FFFFU,00FFFFU,00FFF0U,007FFFU,00FFFFU,00FFFFU,00FFFFU,
00FFFFU,00FFFFU,00FFFFU,00FFFFU,00FFE0U,00FFFFU,00FFFFU,00FFFFU,00FFFFU,
00FFFFU,00FFFFU,00FFFFU,00FFFFU,00FFC1U,00FFFFU,00FFFFU,00FFFFU,00FFFFU,
00FFFFU,00FFFFU,00FFFFU,00FFFFU,00FFC3U,00FFFFU,00FFFFU,00FFFFU,00FFFFU,
00FFFFU,00FFFFU,00FFFFU,00FFFFU,00FFFFU,00FFFFU,00FFFFU,00FFFFU,00FFFFU,
00FFFFU,00FFFFU,00FFFFU,00FFFFU,00FFFFU,00FFFFU,00FFFFU,00FFFFU,00FFFFU,
00FFFFU,00FFFFU,00FFFFU,00FFFFU,00FFFFU,00FFFFU,00FFFFU,00FFFFU,00FFFFU,
00FFFFU,00FFFFU,00FFFFU,00FFFFU,00FFFFU,00FFFFU,00FFFFU,00FFFFU,00FFFFU,
00FFFFU,00FFFFU,00FFFFU,00FFFFU,00FFFFU,00FFFFU,00FFFFU,00FFFFU,00FFFFU,
00FFFFU,00FFFFU,00FFFFU,00FFFFU,00FFFFU,00FFFFU,00FFFFU,00FFFFU,00FFFFU,
00FFFFU,00FFFFU,00FFFFU,00FFFFU,00FFFFU,00FFFFU,00FFFFU,00FFFFU,00FFFFU,
00FFFFU,00FFFFU,00FFFFU,00FFFFU,00FFFFU,00FFFFU,00FFFFU,00FFFFU,00FFFFU,
00FFFFU,00FFFFU,00FFFFU,00FFFFU,00FFFFU,00FFFFU,00FFFFU,00FFFFU,00FFFFU,
00FFFFU,00FFFFU,00FFFFU,00FFFFU,00FFFFU,00FFFFU,00FFFFU,00FFFFU,00FFFFU,
00FFFFU,008063U,00FFFFU,00FFFFU,00FFFFU,00FFFFU,00FFFFU,00FFFFU,00FFFFU,
00FFFFU,00FFFFU,00FFFFU,00FFFFU,00FFFFU,00FFFFU,00BFFFU,00FFFFU,00FFFFU,
00FFFFU,00FFFFU,00FFFFU,00FFFFU,00FFFFU,00FFFFU,001FFFU,00FFFFU,00FFFFU,
00FFFFU,00FFFFU,00FFFFU,00FFFFU,00FFFFU,00FFFEU,000FFFU,00FFFFU,00FFFFU,
00FFFFU,008230U,006302U,007FFFU,00FFFFU,00FFFCU,0007FFU,00FFFFU,00FFFFU,
00FFFFU,00FFFFU,00FFFFU,00FFFFU,00FFFFU,00FFFFU,001FFFU,00FFFFU,00FFFFU,
00FFFFU,008441U,00FFFFU,00FFFFU,00FFFFU,00FFFFU,001FFFU,00FFFFU,00FFFFU,
00FFFFU,00FFFFU,00FFFFU,00FFFFU,00FFFFU,00FFFFU,001FFFU,00FFFFU,00FFFFU,
00FFFFU,008230U,000CC1U,003FFFU,00FFFFU,00FFFFU,001FFFU,00FFFFU,00FFFFU,
00FFFFU,00FFFFU,00FFFFU,00FFFFU,00FFFFU,00FFFFU,001FFFU,00FFFFU,00FFFFU,
00FFFFU,0080C3U,00004CU,003FFFU,00FFFFU,00FFFFU,001FFFU,00FFFFU,00FFFFU,
00FFFFU,00FFFFU,00FFFFU,00FFFFU,00FFFFU,00FFFFU,001FFFU,00FFFFU,00FFFFU,
00FFFFU,008C24U,00098FU,00FFFFU,00FFFFU,00FFFFU,001FFFU,00FFFFU,00FFFFU,
00FFFFU,00FFFFU,00FFFFU,00FFFFU,00FFFFU,00FDFFU,001FFFU,00FFFFU,00FFFFU,
00FFFFU,00808CU,000882U,003FFFU,00FFFFU,00BBBFU,001FFFU,00FFFFU,00FFFFU,
00FFFFU,00FFFFU,00FFFFU,00FFFFU,00FFFFU,007777U,001FFFU,00FFFFU,00FFFFU,
00FFFFU,008824U,006118U,003FFFU,00FFFEU,00EEEFU,001FFFU,00FE7FU,00FFFFU,
00FFFFU,00FFFFU,00FFFFU,00FFFFU,00FFFDU,00DDDDU,009FFFU,00FE5FU,00FFFFU,
00FFFFU,008088U,003090U,003FFFU,00FC40U,000000U,004000U,000047U,00FFFFU,
00FFFFU,00FFFFU,00FFFFU,00FFFFU,00FFFFU,00FFFFU,003777U,00769FU,00FFFFU,
00FFFFU,008301U,008383U,003FFFU,00FFFFU,00FFFFU,001EEEU,00EF7FU,00FFFFU,
00FFFFU,00FFFFU,00FFFFU,00FFFFU,00FFFFU,00FFFFU,001DDDU,00DFFFU,00FFFFU,
00FFFFU,009804U,004070U,003FFFU,00FFFFU,00FFFFU,001FBBU,00BFFFU,00FFFFU,
00FFFFU,00FFFFU,00FFFFU,00FFFFU,00FFFFU,00FFFFU,001FF7U,00FFFFU,00FFFFU,
00FFFFU,008101U,008303U,003FFFU,00FFFFU,00FFFFU,001FFFU,00FFFFU,00FFFFU,
00FFFFU,00FFFFU,00FFFFU,00FFFFU,00FFFFU,00FFFFU,001FFFU,00FFFFU,00FFFFU,
00FFFFU,008020U,0008E0U,003FFFU,00FFFFU,00FFFFU,001FFFU,00FFFFU,00FFFFU,
00FFFFU,00FFFFU,00FFFFU,00FFFFU,00FFFFU,00FFFFU,001FFFU,00FFFFU,00FFFFU,
00FFFFU,008300U,00C844U,003FFFU,00FFFFU,00FFFFU,001FFFU,00FFFFU,00FFFFU,
00FFFFU,00FFFFU,00FFFFU,00FFFFU,00FFFFU,00FFFFU,001FFFU,00FFFFU,00FFFFU,
00FFFFU,008808U,003813U,003FFFU,00FFFFU,00FFFFU,001FFFU,00FFFFU,00FFFFU,
00FFFFU,00FFFFU,00FFFFU,00FFFFU,00FFFFU,00FFFFU,001FFFU,00FFFFU,00FFFFU,
00FFFFU,009018U,003818U,003FFFU,00FFFFU,00FFFFU,001FFFU,00FFFFU,00FFFFU,
00FFFFU,00FFFFU,00FFFFU,00FFFFU,00FFFFU,00FFFFU,001FFFU,00FFFFU,00FFFFU,
00FFFFU,008087U,00013FU,00FFFFU,00FFFFU,00FFFFU,001FFFU,00FFFFU,00FFFFU,
00FFFFU,00FFFFU,00FFFFU,00FFFFU,00FFFFU,00FFFFU,001FFFU,00FFFFU,00FFFFU,
00FFFFU,008E01U,008E02U,003FFFU,00FFFFU,00FFFFU,00FFFFU,00FFFFU,00FFFFU,
00FFFFU,00FFFFU,00FFFFU,00FFFFU,00FFFFU,00FFFFU,00FFFFU,00FFFFU,00FFFFU,
00FFFFU,008618U,001860U,003FFFU,00FFFFU,00FFFFU,00FFFFU,00FFFFU,00FFFFU,
00FFFFU,00FFFFU,00FFFFU,00FFFFU,00FFFFU,00FFFFU,00FFFFU,00FFFFU,00FFFFU,
00FFFFU,0080C1U,00C18CU,003FFFU,00FFFFU,00FFFFU,00FFFFU,00FFFFU,00FFFFU,
00FFFFU,00FFFFU,00FFFFU,00FFFFU,00FFFFU,00FFFFU,00FFFFU,00FFFFU,00FFFFU,
00FFFFU,008C06U,00030CU,003FFFU,00FFFFU,00FFFFU,00FFFFU,00FFFFU,00FFFFU,
00FFFFU,00FFFFU,00FFFFU,00FFF0U,000000U,000000U,000000U,000007U,00FFFFU,
00FFFFU,008060U,0030C0U,003FF7U,00FBDEU,00F7BDU,00EF7BU,00DEF7U,00FFFFU,
00FFFFU,00FFFFU,00FFFFU,00FFF4U,004A52U,00B4ADU,00294AU,00D297U,00FFFFU,
00FFFFU,008306U,000306U,003FF7U,00FBDEU,00F7BDU,00EF7BU,00DEF7U,00FFFFU,
00FFFFU,00FFFFU,00FFFFU,00FFF0U,000000U,000000U,000000U,000007U,00FFFFU,
00FFFFU,008618U,000C18U,003FF7U,00FBDEU,00F7BDU,00EF7BU,00DEF7U,00FFFFU,
00FFFFU,00FFFFU,00FFFFU,00FFF4U,008A56U,0094ADU,00694AU,005697U,00FFFFU,
00FFFFU,0080C0U,004060U,003FF7U,00FBDEU,00F7BDU,00EF7BU,00DEF7U,00FFFFU,
00FFFFU,00FFFFU,00FFFFU,00FFF0U,000000U,000000U,000000U,000007U,00FFFFU,
00FFFFU,008602U,003018U,003FFFU,00FFFFU,00FFFFU,00FFFFU,00FFFFU,00FFFFU,
00FFFFU,00FFFFU,00FFFFU,00FFFFU,00FFFFU,00FFFFU,00FFFFU,00FFFFU,00FFFFU,
00FFFFU,008030U,0060C0U,003FFFU,00FFFFU,00FFFFU,00FFFFU,00FFFFU,00FFFFU,
00FFFFU,00FFFFU,00FFFFU,00FFFFU,00FFFFU,00FFFFU,00FFFFU,00FFFFU,00FFFFU,
00FFFFU,008601U,008181U,003FFFU,00FFFFU,00FFFFU,00FFFFU,00FFFFU,00FFFFU,
00FFFFU,00FFFFU,00FFFFU,00FFFFU,00FFFFU,00FFFFU,00FFFFU,00FFFFU,00FFFFU,
00FFFFU,008063U,00183FU,00FFFFU,00FFFFU,00FFFFU,00FFFFU,00FFFFU,00FFFFU,
00FFFFU,00FFFFU,00FFFFU,00FFFFU,00FFFFU,00FFFFU,00FFFFU,00FFFFU,00FFFFU,
00FFFFU,00FFFFU,00FFFFU,00FFFFU,00FFFFU,00FFFFU,00FFFFU,00FFFFU,00FFFFU,
00FFFFU,00FFFFU,00FFFFU,00FFFFU,00FFFFU,00FFFFU,00FFFFU,00FFFFU,00FFFFU,
00FFFFU,00FFFFU,00FFFFU,00FFFFU,00FFFFU,00FFFFU,00FFFFU,00FFFFU,00FFFFU,
00FFFFU,00FFFFU,00FFFFU,00FFFFU,00FFFFU,00FFFFU,00FFFFU,00FFFFU,00FFFFU,
00FFFFU,00FFFFU,00FFFFU,00FFFFU,00FFFFU,00FFFFU,00FFFFU,00FFFFU,00FFFFU,
00FFFFU,00FFFFU,00FFFFU,00FFFFU,00FFFFU,00FFFFU,00FFFFU,00FFFFU,00FFFFU,
00FFFFU,00FFFFU,00FFFFU,00FFFFU,00FFFFU,00FFFFU,00FFFFU,00FFFFU,00FFFFU,
00FFFFU,00FFFFU,00FFFFU,00FFFFU,00FFFFU,00FFFFU,00FFFFU,00FFFFU,00FFFFU);

PROCEDURE AllocAnalysisImage*():Image;

VAR data : Image;

BEGIN
  data:=e.AllocMem(1800*2,LONGSET{e.memClear,e.chip});
  e.CopyMem(analysis,data^,1800*2);

  RETURN data;
END AllocAnalysisImage;

PROCEDURE AllocAnalysisIntuiImage*(analysisdata:Image):I.ImagePtr;

VAR analayimg : I.ImagePtr;

BEGIN
  NEW(analayimg);
  analayimg.leftEdge:=0;
  analayimg.topEdge:=0;
  analayimg.width:=144;
  analayimg.height:=100;
  analayimg.depth:=2;
  analayimg.imageData:=analysisdata;
  analayimg.planePick:=SHORTSET{0,1};
  analayimg.planeOnOff:=SHORTSET{};
  analayimg.nextImage:=NIL;

  RETURN analayimg;
END AllocAnalysisIntuiImage;



VAR pointerimg     * ,
    pointerselimg  * ,
    cursorimg      * ,
    cursorselimg   * ,
    glassimg       * ,
    glassselimg    * ,
    depthimg       * ,
    depthselimg    * ,
    textimg        * ,
    textselimg     * ,
    deleteimg      * ,
    deleteselimg   * ,
    textlineimg    * ,
    textlineselimg * ,
    lineimg        * ,
    lineselimg     * ,
    rectimg        * ,
    rectselimg     * ,
    circleimg      * ,
    circleselimg   * ,
    analayimg      * ,
    analysisimg    * : Image;
    analayimage    * ,
    analysisimage  * : I.ImagePtr;

PROCEDURE AllocImages;

BEGIN
  pointerimg:=AllocPointerImage();
  pointerselimg:=AllocPointerImage();
  InvertImage(pointerselimg);
  cursorimg:=AllocCursorImage();
  cursorselimg:=AllocCursorImage();
  InvertImage(cursorselimg);
  glassimg:=AllocGlassImage();
  glassselimg:=AllocGlassImage();
  InvertImage(glassselimg);
  depthimg:=AllocDepthImage();
  depthselimg:=AllocDepthImage();
  InvertImage(depthselimg);
  textimg:=AllocTextImage();
  textselimg:=AllocTextImage();
  InvertImage(textselimg);
  deleteimg:=AllocDeleteImage();
  deleteselimg:=AllocDeleteImage();
  InvertImage(deleteselimg);
  textlineimg:=AllocTextLineImage();
  textlineselimg:=AllocTextLineImage();
  InvertImage(textlineselimg);
  lineimg:=AllocLineImage();
  lineselimg:=AllocLineImage();
  InvertImage(lineselimg);
  rectimg:=AllocRectangleImage();
  rectselimg:=AllocRectangleImage();
  InvertImage(rectselimg);
  circleimg:=AllocCircleImage();
  circleselimg:=AllocCircleImage();
  InvertImage(circleselimg);

  analayimg:=AllocAnalayImage();
  analayimage:=AllocAnalayIntuiImage(analayimg);
  analysisimg:=AllocAnalysisImage();
  analysisimage:=AllocAnalysisIntuiImage(analysisimg);
END AllocImages;

PROCEDURE DestructImages;

BEGIN
  DestructImage(pointerimg,32,19,2);
  DestructImage(pointerselimg,32,19,2);
  DestructImage(cursorimg,32,19,2);
  DestructImage(cursorselimg,32,19,2);
  DestructImage(glassimg,32,19,2);
  DestructImage(glassselimg,32,19,2);
  DestructImage(depthimg,32,19,2);
  DestructImage(depthselimg,32,19,2);
  DestructImage(textimg,32,19,2);
  DestructImage(textselimg,32,19,2);
  DestructImage(deleteimg,32,19,2);
  DestructImage(deleteselimg,32,19,2);
  DestructImage(textlineimg,32,19,2);
  DestructImage(textlineselimg,32,19,2);
  DestructImage(lineimg,32,19,2);
  DestructImage(lineselimg,32,19,2);
  DestructImage(rectimg,32,19,2);
  DestructImage(rectselimg,32,19,2);
  DestructImage(circleimg,32,19,2);
  DestructImage(circleselimg,32,19,2);

  e.FreeMem(analayimg,620*2);
  DISPOSE(analayimage);
  e.FreeMem(analysisimg,1800*2);
  DISPOSE(analysisimage);
END DestructImages;

BEGIN
  AllocImages;
CLOSE
  DestructImages;
END Images.

